﻿function HHT_Retrieve_NNT_Detail() {

    var ma_thue_global = $('id_ma_thue').value;
    var shkb = document.TcsLapChungTuForm.kbnn_thu.value;
    //var shkb = document.TcsLapChungTuForm.kbnn_thu.value;
    if (ma_thue_global.length < 10) return;
    if (isNull(shkb)) return;
    var objJSON = {
        "msg": $('id_ma_thue').value + ":" + out['source'] + ":" + shkb
    };
    var strJSON = encodeURIComponent(JSON.stringify(objJSON));
    new Ajax.Request("GetNNTDetail.do", {
        method: "post",
        async: false,
        parameters: "strJSON=" + strJSON,
        onSuccess: onSuccess,
        onError: onError
    });

    function onError() {
        document.getElementById('msgText').innerHTML="01-Error";
    }

    function onSuccess(req) {
        var ten_thue_temp = document.getElementById('id_ten_thue').value;
        var jsonExpression = "(" + req.responseText + ")";
        var arrDetailNNT = new Array();
        lstNNT = eval(jsonExpression);
        var tbl = document.getElementById('tblGridDetailTable');
        var lastRow = tbl.rows.length;
        if (lastRow > 1) {

            for (rowdelete = lastRow - 1; rowdelete >= 2; rowdelete--) {
                document.all("tblGridDetailTable").deleteRow(rowdelete);
            }
        }
        //alert("lstNNT" +lstNNT);  
        arrDetailNNT = lstNNT.p_cur;
        if (arrDetailNNT == null || arrDetailNNT == "") {
            $('id_chuong_row1').value = '';
        }
        //alert(arrDetailNNT[0].ten_nnt);               
        //var lstChuong = detailNNT.listChuong;
        //var lstNDKT = detailNNT.listNDKT;
        //var lstNoiDung = detailNNT.listNoidung;
        //var lstTien = detailNNT.ttct_tien;
        //alert(lstChuong);
        //alert(lstTien[0]);
        detailNNT = arrDetailNNT[0];
        //TEN THUE
        if (detailNNT.ten_nnt == null) {

            if (!isNull(ten_thue_temp)) {

                $('id_ten_thue').value = ten_thue_temp;
            } else {
                //$('id_ten_thue').value='';	
                //Truong hop nhan F6
                $('id_ten_thue').value = 'Người nộp thuế vãng lai';
            }
        } else {
            if (!isNull(detailNNT.ten_nnt)) {
                $('id_ten_thue').value = detailNNT.ten_nnt;
            } else {
                $('id_ten_thue').value = 'Người nộp thuế vãng lai';
            }
        }
        //DIA CHI NGUOI NOP THUE
        var dc_nnt_temp = document.getElementById('id_dc_nnthue').value;
        if (detailNNT.dia_chi == null) {
            if (!isNull(dc_nnt_temp)) {
                $('id_dc_nnthue').value = dc_nnt_temp;
            } else {
                $('id_dc_nnthue').value = '';
            }
        } else {
            $('id_dc_nnthue').value = detailNNT.dia_chi;
        }
       
    }
}


function HHT_TruyVan_TCT(lamviec_thue) {
    var ma_thue = document.TcsLapChungTuForm.ma_thue.value;
    var tbl = document.getElementById('tblGridDetailTable');
    var lastRow = tbl.rows.length;
    var tong_tien = 0;
    var kbnn_thu = document.TcsLapChungTuForm.kbnn_thu.value;

    //HVA
    var strMaLthue = document.TcsLapChungTuForm.loai_thue.value;

    //if (ma_thue == '0000000017')
    if (ma_thue == '0106680443')
        return;
    if (lamviec_thue == '0') {
        Retrieve_NNT_Detail();
        return;
    }
    //@date: 2015-09-25
    //HVA: check neu Loai thue <> 04 thi cho truy van TCT
    //if(strMaLthue != null && strMaLthue == "04"){
    //return;
    //}

    //alert(ma_thue);
    document.TcsLapChungTuForm.so_cmt.value = "";
    var objJSON = {
        "msg": ma_thue, "p_req_type": "mst", "shkb": kbnn_thu
    };
    var strJSON = encodeURIComponent(JSON.stringify(objJSON));
    new Ajax.Request("truyvanThue.do", {
        method: "post",
        async: false,
        parameters: "strJSON=" + strJSON,
        onSuccess: onSuccess,
        onError: onError,
        onLoading: onLoading
    });

    function onLoading() {
        document.getElementById('msgText').innerHTML = "00-Xin hãy chờ, đang lấy dữ liệu từ Tổng cục Thuế...";
        document.getElementById('REQ_GIP').style.display = '';
    }

    function onError() {
            document.getElementById('msgText').innerHTML = "01-Lỗi khi truy vấn dữ liệu từ Tổng cục Thuế";
    }

    function onSuccess(req) {
        var arrRe = new Array();
        var jsonExpression = "(" + req.responseText + ")";
        arrRe = eval(jsonExpression);
        if (arrRe.error_data != undefined) {
            document.getElementById('msgText').innerHTML = "01-" + arrRe.error_data;
            document.getElementById('msg_request_gip').innerHTML = arrRe.error_data + ". Đang thực hiện lấy dữ liệu từ Agritax...";
            HHT_Retrieve_NNT_Detail();
            document.getElementById('REQ_GIP').style.display = "none";
            return;
        }
        document.getElementById('REQ_GIP').style.display = "none";
        var arrData = arrRe.dtl_data;
        var tong_tien = 0;
        var dgArgument = new Object;
        var btnSelected;
        var elSelected;
        if (arrData.length == 0) {
            document.getElementById('msgText').innerHTML = "01-Tổng cục Thuế: Không tìm thấy dữ liệu thỏa mãn điều kiện truy vấn";
            return;
        }

        // DL tra ve arr 3 phan tu 1.arr nnt 2.arr dia chi 3.arr sothue
        var arrNnt = arrData[0];
        var arrDiachi = arrData[1];
        var arrSothue = arrData[2];

        // lay so phan tu so thue theo key la cqthu
        var arrSothueSize = 0, key;
        for (var key in arrSothue) {
            if (arrSothue.hasOwnProperty(key)) arrSothueSize++;
        }

        var iNnt = 0;
        var iDc = 0;
        var iSothue = 0;

        //HVA: khai báo biến tkns tạm
        var tk_nsnn_tem = "";
        var ten_tk_nsnn_tem = "";

        // TH1: du lieu tra ve chi co thong tin mst, khong co thong tin dia chi, so thue
        //if (arrNnt.length == 1 && arrDiachi == null && arrSothueSize == 0) {
        if (arrNnt.length == 1 && (arrDiachi == null || arrDiachi.length == 0) && arrSothueSize == 0) {
            // set thong tin nnt
            document.TcsLapChungTuForm.ma_thue.value = arrNnt[0].ma_nnt;
            document.TcsLapChungTuForm.ten_thue.value = arrNnt[0].ten_nnt;
            // set thong tin dbhc
            document.TcsLapChungTuForm.ma_dbhc.value = arrRe.ma_dbhc_macdinh;
            document.TcsLapChungTuForm.ten_dbhc.value = arrRe.ten_dbhc_macdinh;
            document.TcsLapChungTuForm.cq_thu.value = arrNnt[iNnt].cqt_ql;
            document.TcsLapChungTuForm.tcq_thu.value = arrNnt[iNnt].ten_cqt_ql;
        }
        else {
            //Neu chi tra ve 1 dong nnt, 1 dong dc va <=1 dong so thue, fill luon data ko show popup chon du lieu
            if (arrNnt.length == 1 && arrDiachi.length <= 1 && (arrSothueSize <= 1)) {
                iNnt = 0;
                iDc = 0;
                if (arrSothueSize == 1) {
                    for (var key in arrSothue) {
                        iSothue = key;
                    }
                }
            } else {
                dgArgument['data'] = arrData;
                /*var reVal = window.showModalDialog("ListTTNNTFromThue.html", dgArgument, "dialogWidth:820px; dialogHeight:500px; center:yes");
                if (reVal['ok'] == 'true') {
                    // Chon nut OK tai popup, get phan tu tra ve
                    btnSelected = 'OK';
                    iNnt = reVal['iNnt'];
                    iDc = reVal['iDc'];
                    iSothue = reVal['iSothue'];
                }
                if (reVal['ok'] == 'false') {
                    // Chon nut Cancel tai popup
                    return;
                }
                if (btnSelected == null) return;*/
            }

            document.TcsLapChungTuForm.ma_thue.value = arrNnt[iNnt].ma_nnt;
            document.TcsLapChungTuForm.ten_thue.value = arrNnt[iNnt].ten_nnt;

            if (iDc != null) {
                document.TcsLapChungTuForm.dc_nnthue.value = arrDiachi[iDc].mota_diachi;
                document.TcsLapChungTuForm.dc_nnthue_tinh.value = arrDiachi[iDc].ten_tinh;
                document.TcsLapChungTuForm.dc_nnthue_huyen.value = arrDiachi[iDc].ten_huyen;
            }
            // Neu ton tai dbhc trong danh muc --> fill du lieu --> neu ko lay du lieu mac dinh
            if (iDc != null && arrDiachi[iDc].ten_xa != "") {
                document.TcsLapChungTuForm.ma_dbhc.value = arrDiachi[iDc].ma_xa;
                document.TcsLapChungTuForm.ten_dbhc.value = arrDiachi[iDc].ten_xa;
            } else {
                document.TcsLapChungTuForm.ma_dbhc.value = arrRe.ma_dbhc_macdinh;
                document.TcsLapChungTuForm.ten_dbhc.value = arrRe.ten_dbhc_macdinh;
            }

            //alert(arrSothueSize);
            // Load lthue + cqthu mac dinh
            var loai_thue_macdinh = arrRe.loai_thue_macdinh;
            var tloai_thue_macdinh = arrRe.tloai_thue_macdinh;
            var cq_thu_macdinh = arrRe.cq_thu_macdinh;
            var tcq_thu_macdinh = arrRe.tcq_thu_macdinh;

            // neu khong co du lieu so thue, su dung du lieu nnt de fill cq_thu va ma chuong
            if (arrSothueSize == 0) {
                document.TcsLapChungTuForm.cq_thu.value = arrNnt[iNnt].cqt_ql;
                document.TcsLapChungTuForm.tcq_thu.value = arrNnt[iNnt].ten_cqt_ql;
                if (document.TcsLapChungTuForm.tcq_thu.value == "" || document.TcsLapChungTuForm.tcq_thu.value == "undefined") {
                    document.TcsLapChungTuForm.cq_thu.value = cq_thu_macdinh;
                    document.TcsLapChungTuForm.tcq_thu.value = tcq_thu_macdinh;
                    document.TcsLapChungTuForm.loai_thue.value = loai_thue_macdinh;
                    document.TcsLapChungTuForm.tloai_thue.value = tloai_thue_macdinh;
                } else if (loai_thue_macdinh == "04") {
                    document.TcsLapChungTuForm.loai_thue.value = loai_thue_macdinh;
                    document.TcsLapChungTuForm.tloai_thue.value = tloai_thue_macdinh;
                    document.TcsLapChungTuForm.cq_thu.value = cq_thu_macdinh;
                    document.TcsLapChungTuForm.tcq_thu.value = tcq_thu_macdinh;
                }
                //$('id_chuong_row1').value = arrNnt[iNnt].chuong;
            }
            else {
                // neu co du lieu so thue thi lay theo du lieu so thue da duoc chon
                //HVA: Sửa TK NSNN sai
                tk_nsnn_tem = arrSothue[iSothue][0].so_taikhoan_co;

                try {
                    if (tk_nsnn_tem == null || tk_nsnn_tem == "")
                        tk_nsnn_tem = "7111";
                    else if (tk_nsnn_tem == "711" || tk_nsnn_tem == "71")
                        tk_nsnn_tem = "7111";
                } catch (e) {
                    tk_nsnn_tem = "7111";
                }
                try {
                    ten_tk_nsnn_tem = arrSothue[iSothue][0].ten_taikhoan_co;
                    if (tk_nsnn_tem == "7111")
                        ten_tk_nsnn_tem = "TK Thu NSNN";
                } catch (e) {
                    document.getElementById('msgText').innerHTML = "01-" + e;
                }

                //End HVA
                //document.TcsLapChungTuForm.cq_thu.value = iSothue;
                //document.TcsLapChungTuForm.tk_tnsach.value = arrSothue[iSothue][0].so_taikhoan_co;
                document.TcsLapChungTuForm.tk_tnsach.value = tk_nsnn_tem;
                document.TcsLapChungTuForm.ttk_tnsach.value = ten_tk_nsnn_tem;

                document.TcsLapChungTuForm.cq_thu.value = iSothue;
                document.TcsLapChungTuForm.tcq_thu.value = arrSothue[iSothue][0].ten_cqthu;

                if (document.TcsLapChungTuForm.tcq_thu.value == "" || document.TcsLapChungTuForm.tcq_thu.value == "undefined") {
                    document.TcsLapChungTuForm.cq_thu.value = cq_thu_macdinh;
                    document.TcsLapChungTuForm.tcq_thu.value = tcq_thu_macdinh;
                    document.TcsLapChungTuForm.loai_thue.value = loai_thue_macdinh;
                    document.TcsLapChungTuForm.tloai_thue.value = tloai_thue_macdinh;
                } else if (loai_thue_macdinh == "04") {
                    document.TcsLapChungTuForm.loai_thue.value = loai_thue_macdinh;
                    document.TcsLapChungTuForm.tloai_thue.value = tloai_thue_macdinh;
                    document.TcsLapChungTuForm.cq_thu.value = cq_thu_macdinh;
                    document.TcsLapChungTuForm.tcq_thu.value = tcq_thu_macdinh;
                }
            }
        }
        document.getElementById('msgText').innerHTML = "02-Truy vấn MST thành công!";
    }
}
function HHT_LoadMST(HHT_MST) {
    // Set Hinh Thuc Thu

    document.TcsLapChungTuForm.ma_thue.value = HHT_MST;
    document.getElementById('msgText').style.display = "";
    HHT_TruyVan_TCT(lamviec_thue);

}
function HHT_CheckAndSave()
{
	var i=0;
	var zFound = 0;
	while(i<1000)
	{
		var zMess = document.getElementById('msgText').innerHTML;
		if(zMess.length>2)
		{
			var zResult = zMess.substring(0, 2);
			if( zResult == "02")
			{
				zFound = 1;
				break;
			}
			if(zResult == "01")
			{
				break;
			}
		}
		i++;
	}
	if(zFound ==1 )
	{
		document.getElementById('msgText').style.display = "";
		HHT_sbSave();
	}
}
function HHT_sbSave() {
    var khct = document.TcsLapChungTuForm.khct.value;
    var so_ct = document.TcsLapChungTuForm.sct.value;
    var ngay_ct = document.TcsLapChungTuForm.ngay_ct.value;
    var nguoi_lap = document.TcsLapChungTuForm.nguoi_lap.value;
    var nguoi_ks = document.TcsLapChungTuForm.nguoi_ks.value;
    var kbnn_thu = document.TcsLapChungTuForm.kbnn_thu.value;
    var hthuc_thu = document.TcsLapChungTuForm.hthuc_thu.value;
    var tk_no = document.TcsLapChungTuForm.tk_no.value;
    var ttk_no = document.TcsLapChungTuForm.ttk_no.value;
    var tk_co = document.TcsLapChungTuForm.tk_co.value;
    var ttk_co = document.TcsLapChungTuForm.ttk_co.value;
    var ma_nh_b = document.TcsLapChungTuForm.ma_nh_b.value;
    var ma_thue = document.TcsLapChungTuForm.ma_thue.value;
    var ten_thue = document.TcsLapChungTuForm.ten_thue.value;
    var dc_nnthue = document.TcsLapChungTuForm.dc_nnthue.value;
    var dc_nnthue_huyen = document.TcsLapChungTuForm.dc_nnthue_huyen.value;
    var dc_nnthue_tinh = document.TcsLapChungTuForm.dc_nnthue_tinh.value;
    var nguoi_ntien = document.TcsLapChungTuForm.nguoi_ntien.value;
    var dc_nntien = document.TcsLapChungTuForm.dc_nntien.value;
    var tk_tnsach = document.TcsLapChungTuForm.tk_tnsach.value;
    //
    var ma_dbhc = document.TcsLapChungTuForm.ma_dbhc.value;
    var ten_dbhc = document.TcsLapChungTuForm.ten_dbhc.value;
    var cq_thu = document.TcsLapChungTuForm.cq_thu.value;
    var tcq_thu = document.TcsLapChungTuForm.tcq_thu.value;
    var loai_thue = document.TcsLapChungTuForm.loai_thue.value;
    var tloai_thue = document.TcsLapChungTuForm.tloai_thue.value;
    var so_khung = document.TcsLapChungTuForm.so_khung.value;
    var so_may = document.TcsLapChungTuForm.so_may.value;
    var tkhai_so = document.TcsLapChungTuForm.tkhai_so.value;
    //
    var ngay_dk = document.TcsLapChungTuForm.ngay_dk.value;
    var ngay_kb_ss = document.TcsLapChungTuForm.ngay_kb.value;
    var lh_xnk = document.TcsLapChungTuForm.lh_xnk.value;
    var tlh_xnk = document.TcsLapChungTuForm.tlh_xnk.value;
    var ma_nt = document.TcsLapChungTuForm.ma_nt.value;
    var ten_nt = document.TcsLapChungTuForm.ten_nt.value;
    var ty_gia ="1";// document.TcsLapChungTuForm.ty_gia.value; //HVA
    var so_bke = document.TcsLapChungTuForm.so_bke.value;
    var ngay_bke = document.TcsLapChungTuForm.ngay_bke.value;
    var so_qd = document.TcsLapChungTuForm.so_qd.value;
    //
    var ngay_qd = document.TcsLapChungTuForm.ngay_qd.value;
    var cq_qd = document.TcsLapChungTuForm.cq_qd.value;
    var tong_tien = document.TcsLapChungTuForm.tong_tien.value;
    var tong_tien_nt = document.TcsLapChungTuForm.tong_tien_nt.value;
    //
    var ma_nh_nnt = document.TcsLapChungTuForm.ma_nh_nnt.value;
    var ten_nh_nnt = document.TcsLapChungTuForm.ten_nh_nnt.value;
    var ngaynt = document.TcsLapChungTuForm.ngaynt.value;
    var ma_dvqhns = document.TcsLapChungTuForm.ma_dvqhns.value;
    var ten_dvqhns = document.TcsLapChungTuForm.ten_dvqhns.value;
    var so_tchieu_core = document.TcsLapChungTuForm.so_tc;
    if (isNull(ngay_ct)) {
        document.getElementById('msgText').innerHTML = "01-tcs_nhap_ct_ngay_ct_required";
        document.TcsLapChungTuForm.ngay_ct.focus();
        return;
    }
    if (trim(loai_thue) != '04') {
        document.TcsLapChungTuForm.tkhai_so.value = '';
        document.TcsLapChungTuForm.ngay_dk.value = '';
        document.TcsLapChungTuForm.lh_xnk.value = '';
    }
    if (trim(loai_thue) != '03') {
        document.TcsLapChungTuForm.so_khung.value = '';
        document.TcsLapChungTuForm.so_may.value = '';
    }
    if (isNull(kbnn_thu)) {
        document.getElementById('msgText').innerHTML = "01-tcs_nhap_ct_kbnn_thu_required";
        document.TcsLapChungTuForm.kbnn_thu.focus();
        return;
    }
    if (hthuc_thu == '0' || hthuc_thu == '1') {
        if (isNull(tk_no)) {
            document.getElementById('msgText').innerHTML = "01-tcs_nhap_ct_tk_no_required";
            document.TcsLapChungTuForm.tk_no.focus();
            return;
        }
    }
    if (hthuc_thu == '0' || hthuc_thu == '1') {
        if (isNull(tk_co)) {
            document.getElementById('msgText').innerHTML = "01-Bạn phải nhập thông tin tài khoản có";
            document.TcsLapChungTuForm.tk_co.focus();
            return;
        }
    }
    if (hthuc_thu == '1') {
        if (isNull(ttk_no)) {
            document.getElementById('msgText').innerHTML = "01-tcs_nhap_ct_ttk_no_required";
            document.TcsLapChungTuForm.ttk_no.focus();
            return;
        }
    }
    if (hthuc_thu == '0' || hthuc_thu == '1') {
        if (isNull(ma_nh_b)) {
            document.getElementById('msgText').innerHTML = "01-Mã chi nhánh không được để trắng";
            document.TcsLapChungTuForm.ma_nh_b.focus();
            return;
        }
    }
    if (hthuc_thu == '2') {
        if (isNull(ma_nh_nnt)) {
            document.getElementById('msgText').innerHTML = "01-Mã ngân hàng phục vụ NNT không được để trống";
            document.TcsLapChungTuForm.ma_nh_nnt.focus();
            return;
        }
        if (isNull(ten_nh_nnt) || ten_nh_nnt == "") {
            document.getElementById('msgText').innerHTML = "01-Mã ngân hàng phục vụ NNT không đúng";
            document.TcsLapChungTuForm.ma_nh_nnt.focus();
            return;
        }
        if (isNull(ngaynt)) {
            document.getElementById('msgText').innerHTML = "01-Ngày nộp thuế không được để trống";
            document.TcsLapChungTuForm.ngaynt.focus();
            return;
        }
    }
    if (isNull(ma_thue)) {
        document.getElementById('msgText').innerHTML = "01-tcs_nhap_ct_ma_thue_required";
        document.TcsLapChungTuForm.dc_nnthue_huyen.value = "";
        document.TcsLapChungTuForm.dc_nnthue.value = "";
        document.TcsLapChungTuForm.dc_nnthue_tinh.value = "";
        document.TcsLapChungTuForm.nguoi_ntien.value = "";
        document.TcsLapChungTuForm.dc_nntien.value = "";
        document.TcsLapChungTuForm.ma_dbhc.value = "";
        document.TcsLapChungTuForm.ten_dbhc.value = "";
        document.TcsLapChungTuForm.cq_thu.value = "";
        document.TcsLapChungTuForm.tcq_thu.value = "";
        document.TcsLapChungTuForm.loai_thue.value = "";
        document.TcsLapChungTuForm.tloai_thue.value = "";
        document.TcsLapChungTuForm.so_khung.value = "";
        document.TcsLapChungTuForm.so_may.value = "";
        document.TcsLapChungTuForm.tkhai_so.value = "";
        document.TcsLapChungTuForm.ngay_dk.value = "";
        document.TcsLapChungTuForm.lh_xnk.value = "";
        document.TcsLapChungTuForm.tlh_xnk.value = "";
        document.TcsLapChungTuForm.so_bke.value = "";
        document.TcsLapChungTuForm.ngay_bke.value = "";
        document.TcsLapChungTuForm.so_qd.value = "";
        document.TcsLapChungTuForm.ngay_qd.value = "";
        document.TcsLapChungTuForm.cq_qd.value = "";
        document.TcsLapChungTuForm.tong_tien.value = "0";
        document.TcsLapChungTuForm.tong_tien_nt.value = "0.0";
        document.TcsLapChungTuForm.ttct_tien_nt.value = "0.0";
        document.TcsLapChungTuForm.ttct_tien.value = "0";
        document.TcsLapChungTuForm.ttct_chuong.value = "";
        document.TcsLapChungTuForm.ttct_noidungkt.value = "";
        document.TcsLapChungTuForm.ttct_nganhkt.value = "000";
        document.TcsLapChungTuForm.ttct_noidung.value = "";
        document.TcsLapChungTuForm.so_tb.value = "";
        document.TcsLapChungTuForm.ma_nntien.value = "";
        document.TcsLapChungTuForm.ma_dvqhns.value = "";
        document.TcsLapChungTuForm.ten_dvqhns.value = "";
        if (so_tchieu_core != 'undefined' && !isNull(so_tchieu_core.value)) {
            document.TcsLapChungTuForm.ma_nh_nnt.value = document.TcsLapChungTuForm.ma_nh_nnt_tmp.value;
            document.TcsLapChungTuForm.ngaynt.value = document.TcsLapChungTuForm.ngaynt_tmp.value;
            document.TcsLapChungTuForm.ten_nh_nnt.value = document.TcsLapChungTuForm.ten_nh_nnt_tmp.value;
            document.TcsLapChungTuForm.tk_tnsach.value = document.TcsLapChungTuForm.tk_tnsach_tmp.value;
            document.TcsLapChungTuForm.ma_thue.value = document.TcsLapChungTuForm.ma_thue_tmp.value;
        } else {
            document.TcsLapChungTuForm.ma_nh_nnt.value = "";
            document.TcsLapChungTuForm.ngaynt.value = "";
            document.TcsLapChungTuForm.ten_nh_nnt.value = "";
            document.TcsLapChungTuForm.tk_tnsach.value = "";
        }
        document.TcsLapChungTuForm.ma_thue.focus();
        return;
    } else {
        if (!ma_thue.match(regExpMST)) {
            document.getElementById('msgText').innerHTML = "01-Mã số thuế không đúng định dạng!";
            document.TcsLapChungTuForm.ma_thue.focus();
            return;
        }
    }
    var ma_nntien = document.TcsLapChungTuForm.ma_nntien.value;
    if (!isNull(ma_nntien) && !ma_nntien.match(regExpMST)) {
        document.getElementById('msgText').innerHTML = "01-Mã số thuế người nộp thay không đúng định dạng!";
        document.TcsLapChungTuForm.ma_nntien.focus();
        return;
    }

    if (isNull(ten_thue)) {
        document.getElementById('msgText').innerHTML = "01-tcs_nhap_ct_ten_thue_required";
        document.TcsLapChungTuForm.ten_thue.focus();
        return;
    }
    if (isNull(tk_tnsach)) {
        document.getElementById('msgText').innerHTML = "01-tcs_nhap_ct_tk_tnsach_required";
        document.TcsLapChungTuForm.tk_tnsach.focus();
        return;
    } else {
        if (strStartsWith(trim(tk_tnsach), '3') && trim(tk_tnsach) != '3581') {
            if (isNull(ma_dvqhns)) {
                document.getElementById('msgText').innerHTML = "01-Bạn phải nhập mã ĐVSDNS";
                document.TcsLapChungTuForm.ma_dvqhns.focus();
                return;
            } else {
                if (isNull(ten_dvqhns)) {
                    document.getElementById('msgText').innerHTML = "01-Bạn nhập mã ĐVSDNS không đúng";
                    document.TcsLapChungTuForm.ma_dvqhns.focus();
                    return;
                }
            }
        }
    }
    if (isNull(ma_dbhc)) {
        document.getElementById('msgText').innerHTML = "01-tcs_nhap_ct_ma_dbhc_required";
        document.TcsLapChungTuForm.ma_dbhc.focus();
        return;
    }
    if (isNull(cq_thu)) {
        document.getElementById('msgText').innerHTML = "01-tcs_nhap_ct_cqthu_required";
        document.TcsLapChungTuForm.cq_thu.focus();
        return;
    }
    if (isNull(trim(loai_thue))) {
        document.getElementById('msgText').innerHTML = "01-Bạn phải nhập loại thuế";
        document.TcsLapChungTuForm.loai_thue.focus();
        return;
    }
    if (trim(loai_thue) != '04') {
        if (trim(so_bke) != null && trim(so_bke).length > 0) {
            if (isNull(trim(ngay_bke))) {
                document.getElementById('msgText').innerHTML = "01-Bạn phải nhập ngày bảng kê";
                document.TcsLapChungTuForm.ngay_bke.focus();
                return;
            }
        }
    }
    if (trim(loai_thue) == '04') {
        if (trim(tkhai_so) != null && trim(tkhai_so).length > 0) {
        	//
            //HVA: Check format SoTK o day
            //
        	if(checkSoTKFormat(tkhai_so) == false){
	 			document.getElementById('msgText').innerHTML = "01-THÔNG BÁO:\nSai định dạng Số Tờ khai.\nSố Tờ khai không quá 12 ký tự chữ và số!"; 
	 			return;
			}
            if (isNull(trim(ngay_dk))) {
                document.getElementById('msgText').innerHTML = "01-Bạn phải nhập ngày đăng ký (ngày tờ khai)";
                document.TcsLapChungTuForm.ngay_dk.focus();
                return;
            }
            if (isNull(trim(lh_xnk))) {
               document.getElementById('msgText').innerHTML = "01-Bạn phải nhập loại hình xuất nhập khẩu";
                document.TcsLapChungTuForm.lh_xnk.focus();
                return;
            }
        } else {
        	document.getElementById('msgText').innerHTML = "01-THÔNG BÁO:\nSố Tờ khai không được để trống, trường hợp không có số tờ khai thì thực hiện theo TT 184/2015/TT-BTC:"
        			+ "\n - Nhập số tờ khai mặc định: 99999"
        			+ "\n - Nhập ngày tờ khai: ngày hiện tại";
        	return;
        }

        if (isNull(trim(tkhai_so))) {
            if (isNull(trim(so_bke))) {
                document.getElementById('msgText').innerHTML = "01-Bạn phải nhập thông tin tờ khai hoặc số bảng kê";
                document.TcsLapChungTuForm.tkhai_so.focus();
                return;
            }
            if (isNull(trim(ngay_bke))) {
                document.getElementById('msgText').innerHTML = "01-Bạn phải nhập ngày bảng kê";
                document.TcsLapChungTuForm.ngay_bke.focus();
                return;
            }
        }
        
    }
    // Kiem tra xem co nhap NDKT ung voi chung tu HQ hay khong
    //if(check_loaithue_hq()==false) return;
    
    /* HVA: bo check ty gia*/
    if (isNull(ty_gia)) {
        document.getElementById('msgText').innerHTML = "01-tcs_nhap_ct_ty_gia_invalid";
        document.TcsLapChungTuForm.ty_gia.focus();
        return;
    }
    
     
    //Kiem tra thong tin chi tiet
    try {
        var ttct_ma_quy = document.TcsLapChungTuForm.ttct_ma_quy.length;
        //Xac dinh gia tri tai khoan thu ngan sach
        var tk_tnsach = document.TcsLapChungTuForm.tk_tnsach.value;
        var ttct_ma_quy = document.TcsLapChungTuForm.ttct_ma_quy.value;
        var ttct_chuong = document.TcsLapChungTuForm.ttct_chuong.value;
        var ttct_nganhkt = document.TcsLapChungTuForm.ttct_nganhkt.value;
        var ttct_noidungkt = document.TcsLapChungTuForm.ttct_noidungkt.value;
        var ttct_noidung = document.TcsLapChungTuForm.ttct_noidung.length;
        var ttct_tien_nt = document.TcsLapChungTuForm.ttct_tien_nt.value;
        var ttct_tien = document.TcsLapChungTuForm.ttct_tien.value;
        var ttct_ky_thue = document.TcsLapChungTuForm.ttct_ky_thue.value;
        var ttct_khtk = document.TcsLapChungTuForm.ttct_khtk.value;
        if (isNull(ttct_ma_quy)) {
            document.getElementById('msgText').innerHTML = "01-tcs_nhap_ct_ma_quy";
            document.TcsLapChungTuForm.ttct_ma_quy.focus();
            return;
        }
        if (strStartsWith(trim(tk_tnsach), '74') || strStartsWith(trim(tk_tnsach), '7111') || strStartsWith(trim(tk_tnsach), '3581')) {
            if (isNull(ttct_chuong)) {
                document.getElementById('msgText').innerHTML = "01-tcs_nhap_ct_ma_chuong";
                document.TcsLapChungTuForm.ttct_chuong.focus();
                return;
            }
            if (isNull(ttct_nganhkt)) {
                //alert(tcs_nhap_ct_ma_nkt);
                document.TcsLapChungTuForm.ttct_nganhkt.value = '000';
                ttct_nganhkt = '000';
                //return;
            }
            if (isNull(ttct_noidungkt)) {
                document.getElementById('msgText').innerHTML = "01-tcs_nhap_ct_noidung_kt";
                document.TcsLapChungTuForm.ttct_noidungkt.focus();
                return;
            }
        }

        if (isNull(ttct_tien_nt)) {
            document.getElementById('msgText').innerHTML = "01-tcs_nhap_ct_tiennt_invalid";
            document.TcsLapChungTuForm.ttct_tien_nt.focus();
            return;
        }
        if (parseFloat(toNumber2(ttct_tien_nt)) <= 0) {
            document.getElementById('msgText').innerHTML = "01-tcs_nhap_ct_tiennt_invalid";
            document.TcsLapChungTuForm.ttct_tien_nt.focus();
            return;
        }
        //Convert lai tien nguyen te de insert: Convert from ### ### ### to ########## 
        if (parseFloat(toNumber2(ttct_tien_nt)) > 0) {
            document.TcsLapChungTuForm.ttct_tien_nt.value = toNumber2(ttct_tien_nt);
        }
        if (parseFloat(toNumber2(ttct_tien)) <= 0) {
            document.getElementById('msgText').innerHTML = "01-tcs_nhap_ct_tien_invalid";
            document.TcsLapChungTuForm.ttct_tien_nt.focus();
            return;
        }
        //Convert lai so tien de insert: Convert from ### ### ### to ##########        
        if (parseFloat(toNumber2(ttct_tien)) > 0) {
            document.TcsLapChungTuForm.ttct_tien.value = toNumber2(ttct_tien);
        }
        /*if(isNull(ttct_ky_thue)){
                alert(tcs_nhap_ct_ky_thue);
                document.TcsLapChungTuForm.ttct_ky_thue.focus();
                return;
            }   */
        if (isNull(ttct_khtk)) {
            document.getElementById('msgText').innerHTML = "01-tcs_nhap_ct_khtk";
            document.TcsLapChungTuForm.ttct_khtk.focus();
            return;
        }
    } catch (e) {
        var length_detail = document.TcsLapChungTuForm.ttct_ma_quy.length;
        var tk_tnsach = document.TcsLapChungTuForm.tk_tnsach.value;
        var tmp_tongtien_hdr = 0;
        for (i = 0; i < length_detail; i++) {
            var ttct_ma_quy = document.TcsLapChungTuForm.ttct_ma_quy[i].value;
            var ttct_chuong = document.TcsLapChungTuForm.ttct_chuong[i].value;
            var ttct_nganhkt = document.TcsLapChungTuForm.ttct_nganhkt[i].value;
            var ttct_noidungkt = document.TcsLapChungTuForm.ttct_noidungkt[i].value;
            var ttct_noidung = document.TcsLapChungTuForm.ttct_noidung[i].value;
            var ttct_tien_nt = document.TcsLapChungTuForm.ttct_tien_nt[i].value;
            var ttct_tien = document.TcsLapChungTuForm.ttct_tien[i].value;
            var ttct_ky_thue = document.TcsLapChungTuForm.ttct_ky_thue[i].value;
            var ttct_khtk = document.TcsLapChungTuForm.ttct_khtk[i].value;
            var tmp_sotien_dtl = 0;

            if (isNull(ttct_ma_quy)) {
                document.getElementById('msgText').innerHTML = "01-tcs_nhap_ct_ma_quy";
                document.TcsLapChungTuForm.ttct_ma_quy[i].focus();
                return;
            }
            if (strStartsWith(trim(tk_tnsach), '74') || strStartsWith(trim(tk_tnsach), '7111') || strStartsWith(trim(tk_tnsach), '3581')) {
                if (isNull(ttct_chuong)) {
                    document.getElementById('msgText').innerHTML = "01-tcs_nhap_ct_ma_chuong";
                    document.TcsLapChungTuForm.ttct_chuong[i].focus();
                    return;
                }
                if (isNull(ttct_nganhkt)) {
                    //alert(tcs_nhap_ct_ma_nkt);
                    document.TcsLapChungTuForm.ttct_nganhkt[i].value = '000';
                    ttct_nganhkt = '000';
                    //return;
                }
                if (isNull(ttct_noidungkt)) {
                    document.getElementById('msgText').innerHTML = "01-tcs_nhap_ct_noidung_kt";
                    document.TcsLapChungTuForm.ttct_noidungkt[i].focus();
                    return;
                }
            }

            if (parseFloat(toNumber1(ttct_tien_nt)) <= 0) {
                document.getElementById('msgText').innerHTML = "01-tcs_nhap_ct_tiennt_invalid";
                document.TcsLapChungTuForm.ttct_tien_nt[i].focus();
                return;
            }
            //Convert lai tien nguyen te de insert: Convert from ### ### ### to ##########        
            if (parseFloat(toNumber2(ttct_tien_nt)) > 0) {
                document.TcsLapChungTuForm.ttct_tien_nt[i].value = toNumber2(ttct_tien_nt);
            }
            if (parseFloat(toNumber1(ttct_tien)) <= 0) {
                document.getElementById('msgText').innerHTML = "01-tcs_nhap_ct_tiennt_invalid";
                document.TcsLapChungTuForm.ttct_tien[i].focus();
                return;
            }
            //Convert lai tien nguyen te de insert: Convert from ### ### ### to ##########        
            if (parseFloat(toNumber2(ttct_tien)) > 0) {
                //document.TcsLapChungTuForm.ttct_tien[i].value = toNumber2(ttct_tien);
                //TungNS: update lai truong so tien cua dtl
                tmp_sotien_dtl = toNumber2(ty_gia) * toNumber2(ttct_tien_nt);
                tmp_sotien_dtl = Math.round(tmp_sotien_dtl);
                document.TcsLapChungTuForm.ttct_tien[i].value = tmp_sotien_dtl;
                //Update lai truong tong tien hdr
                tmp_tongtien_hdr += tmp_sotien_dtl;
            }
            /*if(isNull(ttct_ky_thue)){
	                alert(tcs_nhap_ct_ky_thue);
	                document.TcsLapChungTuForm.ttct_ky_thue[i].focus();
	                return;
	           } */
            if (isNull(ttct_khtk)) {
                document.getElementById('msgText').innerHTML = "01-tcs_nhap_ct_khtk";
                document.TcsLapChungTuForm.ttct_khtk[i].focus();
                return;
            }
            //Kiem tra 2 dong detail trung nhau
//            for (j = 0; j < i; j++) {
//                var ttct_ma_quy1 = document.TcsLapChungTuForm.ttct_ma_quy[j].value;
//                var ttct_chuong1 = document.TcsLapChungTuForm.ttct_chuong[j].value;
//                //var ttct_nganhkt1=document.TcsLapChungTuForm.ttct_nganhkt[j].value;  
//                var ttct_nganhkt1 = '000';
//                var ttct_noidungkt1 = document.TcsLapChungTuForm.ttct_noidungkt[j].value;
//                //var ttct_noidungkt1='000'; 
//                var ttct_noidung1 = document.TcsLapChungTuForm.ttct_noidung[j].value;
//                var ttct_ky_thue1 = document.TcsLapChungTuForm.ttct_ky_thue[j].value;
//                var ttct_khtk1 = document.TcsLapChungTuForm.ttct_khtk[j].value;
//                if (ttct_ma_quy1 == ttct_ma_quy) {
//                    if (ttct_chuong1 == ttct_chuong) {
//                        if (ttct_nganhkt1 == ttct_nganhkt) {
//                            if (ttct_noidungkt1 == ttct_noidungkt) {
//                                if (ttct_noidung1 == ttct_noidung) {
//                                    if (ttct_ky_thue1 == ttct_ky_thue) {
//                                        if (ttct_khtk1 == ttct_khtk) {
//                                            alert(tcs_nhap_ct_detail_row);
//                                            if (parseFloat(i) == 0) {
//                                                document.TcsLapChungTuForm.ttct_ma_quy.focus();
//                                                return;
//                                            } else {
//                                                document.TcsLapChungTuForm.ttct_ma_quy[i].focus();
//                                                return;
//                                            }
//                                        }
//                                    }
//                                }
//                            }
//                        }
//                    }
//                }
//            }
        }
    }
    //Convert lai ty gia de insert: Convert from ### ### ### to ##########    
    if (parseFloat(toNumber2(ty_gia)) > 0) {
        document.TcsLapChungTuForm.ty_gia.value = toNumber2(ty_gia);
    }
    //Convert lai tong tien de insert: Convert from ### ### ### to ##########        
    if (parseFloat(toNumber2(tong_tien_nt)) > 0) {
        document.TcsLapChungTuForm.tong_tien_nt.value = toNumber2(tong_tien_nt);
    }
    //Convert lai tong tien de insert: Convert from ### ### ### to ##########        
    if (parseFloat(toNumber2(tong_tien)) > 0) {
        //document.TcsLapChungTuForm.tong_tien.value = toNumber2(tong_tien);
        //Set lai truong tong tien hdr
        if (tmp_tongtien_hdr != 'undefined' && tmp_tongtien_hdr > 0) document.TcsLapChungTuForm.tong_tien.value = tmp_tongtien_hdr;
        else document.TcsLapChungTuForm.tong_tien.value = toNumber2(tong_tien);
    }
    
    removeError('tong_tien');
    removeError('tong_tien_nt');
    if (!checkConstrain()) {
        return;
    } else {
        document.getElementById('id_sbSave').disabled = true;
        //alert('detailNNT: ' + detailNNT);
        if (detailNNT != null || detailNNT != 'undefined')
        	document.TcsLapChungTuForm.nguon_dl.value = detailNNT.nguon_dl;
        document.TcsLapChungTuForm.__action.value = "save";
        document.TcsLapChungTuForm.submit();
		document.getElementById('msgText').innerHTML = "02-Success!";
    }
}

function HHT_sbTruyVanHaiQuan_022016() {
    var tk_so = document.TcsLapChungTuForm.tkhai_so.value;
    var ngay_tk = document.TcsLapChungTuForm.ngay_dk.value;
    var ma_thue = document.TcsLapChungTuForm.ma_thue.value;
    document.getElementById('msgText').innerHTML = "";
    var tbl = document.getElementById('tblGridDetailTable');
    var lastRow = tbl.rows.length;
    var tong_tien = 0;
    if (isNull(ma_thue)) {
        document.getElementById('msgText').innerHTML ="01-Bạn phải nhập mã số thuế!";
        document.TcsLapChungTuForm.ma_thue.focus();
        return;
    } else {
        var objJSON = {
            "msg": $('id_ma_thue').value + "@" + $('id_tkhai_so_1').value + "@" + $('id_ngay_dk_1').value
        };
        var strJSON = encodeURIComponent(JSON.stringify(objJSON));
        new Ajax.Request("truyvanHq.do", {
            method: "post",
            async: false,
            parameters: "strJSON=" + strJSON,
            onSuccess: onSuccess,
            onError: onError,
            onLoading: onLoading
        });

        function onLoading() {
            document.getElementById('indicator').style.display = "";
        }

        function onError() {
            document.getElementById('msgText').innerHTML ="01-Error";
        }

        function onSuccess(req) {
            var retData = new Array();
            document.getElementById('indicator').style.display = "none";
            var jsonExpression = "(" + req.responseText + ")";
            retData = eval(jsonExpression);

            if (retData.flag_ceritificate == false) {
                document.getElementById('msgText').innerHTML ="01-Có lỗi xảy ra khi sinh chữ ký số (HSM)";
                return;
            }

            if (retData.errorNumber != "00") {
                document.getElementById('msgText').innerHTML ="01-Truy vấn dữ liệu hải quan không thành công: " + retData.errorMessage;
                return;
            }
            if (retData.flag_error == false) {
                document.getElementById('msgText').innerHTML ="01-Không tìm thấy dữ liệu thỏa mãn điều kiện truy vấn!";
                return;
            }


            var data = retData.dataHQ;
            var dgArgument = new Object;
            var btnSelected;
            var elSelected;

            if (data.length == 0) {
                document.getElementById('msgText').innerHTML ="01-Không tìm thấy dữ liệu thỏa mãn điều kiện truy vấn!";
                return;
            }
            //alert('test.length:' + test.length);
            //Neu chi tra ve 1 dong hdr
            if (data.length == 1) {
                elSelected = 0;
            } else {
                dgArgument['data'] = data;
                var reVal = window.showModalDialog("ListCTTKFromHQ.html", dgArgument, "dialogWidth:720px; dialogHeight:400px; center:yes");
                if (reVal['ok'] == 'true') {
                    // Chon nut OK tai popup, get phan tu tra ve
                    btnSelected = 'OK';
                    elSelected = reVal['data'];
                }
                if (reVal['ok'] == 'false') {
                    // Chon nut Cancel tai popup
                    return;
                }
                if (btnSelected == null) return;
            }
            /**
				set du lieu to khai ve trang lap chung tu
			*/
            document.TcsLapChungTuForm.cq_thu.value = data[elSelected].ma_HQ_PH; //Luu MA_HQ_PH cua M12 tra ve
            document.TcsLapChungTuForm.tcq_thu.value = data[elSelected].ten_HQ_PH;
            document.TcsLapChungTuForm.ma_hq_ph.value = data[elSelected].ma_HQ_CQT; //Luu MA_HQ cua M12 tra ve
            document.TcsLapChungTuForm.ten_thue.value = data[elSelected].ten_DV;
            document.TcsLapChungTuForm.ma_loaitien.value = data[elSelected].ma_LT;
            var tk_ns = data[elSelected].TKKB;
            document.TcsLapChungTuForm.tk_ns_hq.value = tk_ns;
            document.TcsLapChungTuForm.tk_tnsach.value = tk_ns;
            Load_DVSDNS_TheoTK(tk_ns);
            document.TcsLapChungTuForm.tkhai_so.value = data[elSelected].so_TK;

            // Add 30102014 THUYNTT
            document.TcsLapChungTuForm.lh_xnk.value = data[elSelected].ma_LH;
            document.TcsLapChungTuForm.tlh_xnk.value = data[elSelected].ma_LH + ' - ' + data[elSelected].ten_LH;
            document.TcsLapChungTuForm.ngay_dk.value = data[elSelected].ngay_DK;
            // Add 30102014 THUYNTT

            var detail_length = data[elSelected].CT_No.length;
            if (detail_length == 0) {
                document.getElementById('msgText').innerHTML ="01-Dữ liệu Tổng Cục Hải Quan trả về:\n***Không tồn tại số tiền phải nộp hoặc Tờ khai đã được giải phóng :\n(Ứng với MST: " + ma_thue + " - " + ten_thue +
                    " \nSố tờ khai: " + tk_so + " - Ngày TK: " + ngay_tk + " \nLoại hình XNK: " + lh_xnk + " - " + tlh_xnk + ")";
                return;
            }
            var maChuong = data[elSelected].ma_Chuong;
            if (maChuong != null && maChuong != "") {
                maChuong = maChuong.trim();
            }
            if (detail_length == 1) {
                $('id_chuong_row1').value = maChuong;//data[elSelected].ma_Chuong;
                //                $('id_nganhkt_row1').value = data[elSelected].CT_No[0].nkt;
                $('id_noidungkt_row1').value = data[elSelected].CT_No[0].tieuMuc;
                $('id_noidung_row1').value = data[elSelected].CT_No[0].noiDung;
                //$('id_ttct_loai_thue_hq1').value = data[elSelected].CT_No[0].loaiThue;

                //alert(data[elSelected].CT_No[0].duNo);
                if (data[elSelected].CT_No[0].duNo > 0) {
                    $('id_tien_nt_row1').value = toFormatNumberDe_TCS(data[elSelected].CT_No[0].duNo);
                    $('id_tien_row1').value = toFormatNumberDe_TCS(data[elSelected].CT_No[0].duNo);
                }
                //alert('lastRow: '+ lastRow);
                if (lastRow > 2) {
                    for (rowdelete = lastRow - 1; rowdelete >= 2; rowdelete--) {
                        document.all("tblGridDetailTable").deleteRow(rowdelete);
                    }
                }
            } else {
                try {
                    //alert('Ch??ng2: '+ test[elSelected].childs[0].chuong);
                    $('id_chuong_row1').value = maChuong;//data[elSelected].ma_Chuong;
                    // $('id_nganhkt_row1').value = data[elSelected].childs[0].nkt;
                    $('id_noidungkt_row1').value = data[elSelected].CT_No[0].tieuMuc;
                    $('id_noidung_row1').value = data[elSelected].CT_No[0].noiDung;
                    //$('id_ttct_loai_thue_hq1').value = data[elSelected].CT_No[0].loaiThue;
                    if (data[elSelected].CT_No[0].duNo > 0) {
                        $('id_tien_nt_row1').value = toFormatNumberDe_TCS(data[elSelected].CT_No[0].duNo);
                        $('id_tien_row1').value = toFormatNumberDe_TCS(data[elSelected].CT_No[0].duNo);
                    }
                    //alert('lastRow: '+ lastRow);
                    if (lastRow > 2) {
                        for (rowdelete = lastRow - 1; rowdelete >= 2; rowdelete--) {
                            document.all("tblGridDetailTable").deleteRow(rowdelete);
                        }
                    }
                } catch (err) {
                    //alert(err.message);
                }

                for (ik = 1; ik < detail_length; ik++) {
                    //alert("Tien: " + test[elSelected].childs[ik].tien);
                    //alert(data[elSelected].CT_No[ik].duNo);
                    if (data[elSelected].CT_No[ik].duNo > 0) {
                        addDetailRowForQuery(maChuong/*data[elSelected].ma_Chuong*/, '', data[elSelected].CT_No[ik].tieuMuc, data[elSelected].CT_No[ik].noiDung, toFormatNumberDe_TCS(data[elSelected].CT_No[ik].duNo), toFormatNumberDe_TCS(data[elSelected].CT_No[ik].duNo));
                    } else {
                        addDetailRowForQuery(maChuong/*data[elSelected].ma_Chuong*/, '', data[elSelected].CT_No[ik].tieuMuc, data[elSelected].CT_No[ik].noiDung, toFormatNumberDe_TCS(0), toFormatNumberDe_TCS(0));
                    }
                }


            }
            for (count_detail = 0; count_detail < detail_length; count_detail++) {
                try {
                    if (data[elSelected].CT_No[count_detail].duNo > 0) {
                        var tongtien_temp = toNumber2(data[elSelected].CT_No[count_detail].duNo);
                    } else {
                        var tongtien_temp = 0;
                    }
                    tong_tien += parseFloat(tongtien_temp);
                } catch (e) {
                    alert(e);
                }
            }

            $('id_tong_tien_nt').value = toFormatNumberDe_TCS(new String(tong_tien));
            $('id_tong_tien').value = toFormatNumberDe_TCS(new String(tong_tien));
            document.getElementById('msgText').style.display = "";
            document.getElementById('msgText').innerHTML = "02-Truy vấn hải quan thành công!";
        }
    }
}

function HHT_sbTruyVanPhiHQ() {
    document.getElementById('msgText').innerHTML = "";
    var tk_so = document.TcsLapChungTuForm.tkhai_so.value;
    var ngay_tk = document.TcsLapChungTuForm.ngay_dk.value;
    var ma_thue = document.TcsLapChungTuForm.ma_thue.value;
    var tbl = document.getElementById('tblGridDetailTable');
    var lastRow = tbl.rows.length;
    var tong_tien = 0;
    if (isNull(ma_thue)) {
        document.getElementById('msgText').innerHTML ="01-Bạn phải nhập mã số thuế!";
        document.TcsLapChungTuForm.ma_thue.focus();
        return;
    } else {
        var objJSON = {
            "msg": $('id_ma_thue').value + "@" + $('id_tkhai_so_1').value + "@" + $('id_ngay_dk_1').value
        };
        var strJSON = encodeURIComponent(JSON.stringify(objJSON));
        new Ajax.Request("truyvanPhiHq.do", {
            method: "post",
            async: false,
            parameters: "strJSON=" + strJSON,
            onSuccess: onSuccess,
            onError: onError,
            onLoading: onLoading
        });

        function onLoading() {
            document.getElementById('indicatorPhi').style.display = "";
        }

        function onError() {
            document.getElementById('msgText').innerHTML ="01-Error";
        }

        function onSuccess(req) {
            var retData = new Array();
            document.getElementById('indicatorPhi').style.display = "none";
            var jsonExpression = "(" + req.responseText + ")";
            retData = eval(jsonExpression);

            if (retData.flag_ceritificate == false) {
                document.getElementById('msgText').innerHTML ="01-Có lỗi xảy ra khi sinh chữ ký số (HSM)";
                return;
            }

            if (retData.errorNumber != "00") {
                document.getElementById('msgText').innerHTML ="01-Truy vấn dữ liệu hải quan không thành công: " + retData.errorMessage;
                return;
            }
            if (retData.flag_error == false) {
                document.getElementById('msgText').innerHTML ="01-Không tìm thấy dữ liệu thỏa mãn điều kiện truy vấn!";
                return;
            }


            var data = retData.dataHQ;
            var dgArgument = new Object;
            var btnSelected;
            var elSelected;

            if (data.length == 0) {
                document.getElementById('msgText').innerHTML ="01-Không tìm thấy dữ liệu thỏa mãn điều kiện truy vấn!";
                return;
            }
            //alert('test.length:' + test.length);
            //Neu chi tra ve 1 dong hdr
            if (data.length == 1) {
                elSelected = 0;
            } else {
                dgArgument['data'] = data;
                var reVal = window.showModalDialog("ListPhiFromHQ.jsp", dgArgument, "dialogWidth:720px; dialogHeight:400px; center:yes");
                if (reVal['ok'] == 'true') {
                    // Chon nut OK tai popup, get phan tu tra ve
                    btnSelected = 'OK';
                    elSelected = reVal['data'];
                }
                if (reVal['ok'] == 'false') {
                    // Chon nut Cancel tai popup
                    return;
                }
                if (btnSelected == null) return;
            }
            /**
				set du lieu to khai ve trang lap chung tu
			*/
            document.TcsLapChungTuForm.cq_thu.value = data[elSelected].ma_HQ_PH; //Luu MA_HQ_PH cua M12 tra ve
            document.TcsLapChungTuForm.tcq_thu.value = data[elSelected].ten_HQ_PH;
            document.TcsLapChungTuForm.ma_hq_ph.value = data[elSelected].ma_HQ_CQT; //Luu MA_HQ cua M12 tra ve
            document.TcsLapChungTuForm.ten_thue.value = data[elSelected].ten_DV;
            document.TcsLapChungTuForm.ma_loaitien.value = data[elSelected].ma_LT;
            var tk_ns = data[elSelected].TKKB;
            document.TcsLapChungTuForm.tk_ns_hq.value = tk_ns;
            document.TcsLapChungTuForm.tk_tnsach.value = tk_ns;
            Load_DVSDNS_TheoTK(tk_ns);
            document.TcsLapChungTuForm.ma_loaitien.value = 11;
            //document.TcsLapChungTuForm.tkhai_so.value = data[elSelected].so_tk;

            // Add 30102014 THUYNTT
            document.TcsLapChungTuForm.lh_xnk.value = data[elSelected].ma_LH;
            document.TcsLapChungTuForm.tlh_xnk.value = data[elSelected].ma_LH + ' - ' + data[elSelected].ten_LH;
            document.TcsLapChungTuForm.ngay_dk.value = data[elSelected].ngay_DK;
            // Add 30102014 THUYNTT

            var detail_length = data[elSelected].CT_No.length;
            if (detail_length == 0) {
                document.getElementById('msgText').innerHTML ="01-Dữ liệu Tổng Cục Hải Quan trả về:\n***Không tồn tại số tiền phải nộp hoặc Tờ khai đã được giải phóng :\n(Ứng với MST: " + ma_thue + " - " + ten_thue +
                    " \nSố tờ khai: " + tk_so + " - Ngày TK: " + ngay_tk + " \nLoại hình XNK: " + lh_xnk + " - " + tlh_xnk + ")";
                return;
            }
            var maChuong = data[elSelected].ma_Chuong;
            if (maChuong != null && maChuong != "") {
                maChuong = maChuong.trim();
            }
            if (detail_length == 1) {
                $('id_chuong_row1').value = maChuong;//data[elSelected].ma_Chuong;
                document.TcsLapChungTuForm.tkhai_so.value = data[elSelected].CT_No[0].so_tk;
                document.TcsLapChungTuForm.ngay_dk.value = data[elSelected].CT_No[0].ngay_dk;
                document.TcsLapChungTuForm.lh_xnk.value = data[elSelected].CT_No[0].ma_lh;
                document.TcsLapChungTuForm.tlh_xnk.value = data[elSelected].CT_No[0].ma_lh + ' - ' + data[elSelected].CT_No[0].ten_lh;
                //                $('id_nganhkt_row1').value = data[elSelected].CT_No[0].nkt;
                $('id_noidungkt_row1').value = data[elSelected].CT_No[0].tieuMuc;
                $('id_noidung_row1').value = data[elSelected].CT_No[0].noiDung;
                //$('id_loai_thue_hq_row1').value = data[elSelected].CT_No[0].loaiThue;
                //alert(data[elSelected].CT_No[0].duNo);
                if (data[elSelected].CT_No[0].duNo > 0) {
                    $('id_tien_nt_row1').value = toFormatNumberDe_TCS(data[elSelected].CT_No[0].duNo);
                    $('id_tien_row1').value = toFormatNumberDe_TCS(data[elSelected].CT_No[0].duNo);
                }
                //alert('lastRow: '+ lastRow);
                if (lastRow > 2) {
                    for (rowdelete = lastRow - 1; rowdelete >= 2; rowdelete--) {
                        document.all("tblGridDetailTable").deleteRow(rowdelete);
                    }
                }
            } else {
                try {
                    //alert('Ch??ng2: '+ test[elSelected].childs[0].chuong);
                    $('id_chuong_row1').value = maChuong;//data[elSelected].ma_Chuong;
                    document.TcsLapChungTuForm.tkhai_so.value = data[elSelected].CT_No[0].so_tk;
                    document.TcsLapChungTuForm.ngay_dk.value = data[elSelected].CT_No[0].ngay_dk;
                    document.TcsLapChungTuForm.lh_xnk.value = data[elSelected].CT_No[0].ma_lh;
                    document.TcsLapChungTuForm.tlh_xnk.value = data[elSelected].CT_No[0].ma_lh + ' - ' + data[elSelected].CT_No[0].ten_lh;
                    // $('id_nganhkt_row1').value = data[elSelected].childs[0].nkt;
                    $('id_noidungkt_row1').value = data[elSelected].CT_No[0].tieuMuc;
                    $('id_noidung_row1').value = data[elSelected].CT_No[0].noiDung;
                    //$('id_loai_thue_hq_row1').value = data[elSelected].CT_No[0].loaiThue;
                    if (data[elSelected].CT_No[0].duNo > 0) {
                        $('id_tien_nt_row1').value = toFormatNumberDe_TCS(data[elSelected].CT_No[0].duNo);
                        $('id_tien_row1').value = toFormatNumberDe_TCS(data[elSelected].CT_No[0].duNo);
                    }
                    //alert('lastRow: '+ lastRow);
                    if (lastRow > 2) {
                        for (rowdelete = lastRow - 1; rowdelete >= 2; rowdelete--) {
                            document.all("tblGridDetailTable").deleteRow(rowdelete);
                        }
                    }
                } catch (err) {
                    //alert(err.message);
                }

                for (ik = 1; ik < detail_length; ik++) {
                    //alert("Tien: " + test[elSelected].childs[ik].tien);
                    //alert(data[elSelected].CT_No[ik].duNo);
                    if (data[elSelected].CT_No[ik].duNo > 0) {
                        addDetailRowForQuery(maChuong/*data[elSelected].ma_Chuong*/, '', data[elSelected].CT_No[ik].tieuMuc, data[elSelected].CT_No[ik].noiDung, toFormatNumberDe_TCS(data[elSelected].CT_No[ik].duNo), toFormatNumberDe_TCS(data[elSelected].CT_No[ik].duNo));
                    } else {
                        addDetailRowForQuery(maChuong/*data[elSelected].ma_Chuong*/, '', data[elSelected].CT_No[ik].tieuMuc, data[elSelected].CT_No[ik].noiDung, toFormatNumberDe_TCS(0), toFormatNumberDe_TCS(0));
                    }
                }


            }
            for (count_detail = 0; count_detail < detail_length; count_detail++) {
                try {
                    if (data[elSelected].CT_No[count_detail].duNo > 0) {
                        var tongtien_temp = toNumber2(data[elSelected].CT_No[count_detail].duNo);
                    } else {
                        var tongtien_temp = 0;
                    }
                    tong_tien += parseFloat(tongtien_temp);
                } catch (e) {
                    alert(e);
                }
            }

            $('id_tong_tien_nt').value = toFormatNumberDe_TCS(new String(tong_tien));
            $('id_tong_tien').value = toFormatNumberDe_TCS(new String(tong_tien));
            document.getElementById('msgText').style.display = "";
            document.getElementById('msgText').innerHTML = "Truy vấn hải quan thành công!";
        }
    }
}
